npc/test/queue_test/queue.vcd
$version Generated by VerilatedVcd $end
$date Thu Dec 14 22:45:40 2023 $end
$timescale 1ps $end

 $scope module TOP $end
  $var wire  1 : clk_i $end
  $var wire  4 > data_in [3:0] $end
  $var wire  4 ? data_out [3:0] $end
  $var wire  1 = pop $end
  $var wire  1 < push $end
  $var wire  1 ; rst_i $end
  $scope module queue $end
   $var wire 32 @ DEPTH [31:0] $end
   $var wire 32 A PTR_WIDTH [31:0] $end
   $var wire  1 : clk_i $end
   $var wire  4 > data_in [3:0] $end
   $var wire  4 ? data_out [3:0] $end
   $var wire  4 2 data_queue_d[0] [3:0] $end
   $var wire  4 3 data_queue_d[1] [3:0] $end
   $var wire  4 4 data_queue_d[2] [3:0] $end
   $var wire  4 5 data_queue_d[3] [3:0] $end
   $var wire  4 6 data_queue_d[4] [3:0] $end
   $var wire  4 7 data_queue_d[5] [3:0] $end
   $var wire  4 8 data_queue_d[6] [3:0] $end
   $var wire  4 9 data_queue_d[7] [3:0] $end
   $var wire  4 ' data_queue_q[0] [3:0] $end
   $var wire  4 ( data_queue_q[1] [3:0] $end
   $var wire  4 ) data_queue_q[2] [3:0] $end
   $var wire  4 * data_queue_q[3] [3:0] $end
   $var wire  4 + data_queue_q[4] [3:0] $end
   $var wire  4 , data_queue_q[5] [3:0] $end
   $var wire  4 - data_queue_q[6] [3:0] $end
   $var wire  4 . data_queue_q[7] [3:0] $end
   $var wire  1 # empty $end
   $var wire  1 $ full $end
   $var wire  4 0 head_ptr_d [3:0] $end
   $var wire  4 % head_ptr_q [3:0] $end
   $var wire  1 = pop $end
   $var wire  1 < push $end
   $var wire  1 ; rst_i $end
   $var wire  4 1 tail_ptr_d [3:0] $end
   $var wire  4 & tail_ptr_q [3:0] $end
   $scope module unnamedblk1 $end
    $var wire 32 / i [31:0] $end
   $upscope $end
  $upscope $end
 $upscope $end
$enddefinitions $end


#0
1#
0$
b0000 %
b0000 &
b0000 '
b0000 (
b0000 )
b0000 *
b0000 +
b0000 ,
b0000 -
b0000 .
b00000000000000000000000000000000 /
b0000 0
b0000 1
b0000 2
b0000 3
b0000 4
b0000 5
b0000 6
b0000 7
b0000 8
b0000 9
0:
0;
0<
0=
b0000 >
b0000 ?
b00000000000000000000000000001000 @
b00000000000000000000000000000011 A
#1
b00000000000000000000000000001000 /
1:
1;
#2
0:
0;
#3
b0001 0
b0001 2
1:
1<
1=
b0001 >
#4
0:
#5
0#
b0001 %
b0001 '
b0010 0
b0001 1
b0001 3
1:
b0001 ?
#6
0:
#7
b0010 %
b0001 &
b0001 (
b0011 0
b0010 1
b0001 4
1:
#8
0:
#9
b0011 %
b0010 &
b0001 )
b0100 0
b0011 1
b0001 5
1:
#10
0:
#11
b0100 %
b0011 &
b0001 *
b0101 0
b0100 1
b0001 6
1:
#12
0:
#13
b0101 %
b0100 &
b0001 +
b0110 0
b0101 1
b0010 7
1:
b0010 >
#14
0:
#15
b0110 %
b0101 &
b0010 ,
b0111 0
b0110 1
b0011 8
1:
b0011 >
b0010 ?
#16
0:
#17
b0111 %
b0110 &
b0011 -
b1000 0
b0111 1
b0100 9
1:
b0100 >
b0011 ?
#18
0:
#19
b1000 %
b0111 &
b0100 .
b1001 0
b1000 1
b0100 2
1:
b0100 ?
#20
0:
#21
b1001 %
b1000 &
b0100 '
b1010 0
b1001 1
b0100 3
1:
#22
0:
#23
b1010 %
b1001 &
b0100 (
b1011 0
b1010 1
b0100 4
1:
#24
0:
#25
b1011 %
b1010 &
b0100 )
b1100 0
b1011 1
b0101 5
1:
b0101 >
#26
0:
#27
b1100 %
b1011 &
b0101 *
b1101 0
b1100 1
b0110 6
1:
b0110 >
b0101 ?
#28
0:
#29
b1101 %
b1100 &
b0110 +
b1110 0
b1101 1
b0111 7
1:
b0111 >
b0110 ?
#30
0:
#31
b1110 %
b1101 &
b0111 ,
b1111 0
b1110 1
b1000 8
1:
b1000 >
b0111 ?
#32
0:
#33
b1111 %
b1110 &
b1000 -
b0000 0
b1111 1
b1001 9
1:
b1001 >
b1000 ?
#34
0:
#35
b0000 %
b1111 &
b1001 .
b0001 0
b0000 1
b1001 2
1:
b1001 ?
#36
0:
#37
b0001 %
b0000 &
b1001 '
b0010 0
b0001 1
b1001 3
1:
#38
0:
#39
b0010 %
b0001 &
b1001 (
b0011 0
b0010 1
b1010 4
1:
b1010 >
#40
0:
#41
b0011 %
b0010 &
b1010 )
b0100 0
b0011 1
b1011 5
1:
b1011 >
b1010 ?
#42
0:
#43
b0100 %
b0011 &
b1011 *
b0101 0
b0100 1
b1011 6
1:
b1011 ?
#44
0:
#45
b0101 %
b0100 &
b1011 +
b0110 0
b0101 1
b1100 7
1:
b1100 >
#46
0:
#47
b0110 %
b0101 &
b1100 ,
b0111 0
b0110 1
b1100 8
1:
b1100 ?
#48
0:
#49
b0111 %
b0110 &
b1100 -
b1000 0
b0111 1
b1100 9
1:
#50
0:
#51
b1000 %
b0111 &
b1100 .
b1001 0
b1000 1
b1100 2
1:
#52
0:
#53
b1001 %
b1000 &
b1100 '
b1010 0
b1001 1
b1100 3
1:
#54
0:
#55
b1010 %
b1001 &
b1100 (
b1011 0
b1010 1
b1100 4
1:
#56
0:
#57
b1011 %
b1010 &
b1100 )
b1100 0
b1011 1
b1101 5
1:
b1101 >
#58
0:
#59
b1100 %
b1011 &
b1101 *
b1101 0
b1100 1
b1110 6
1:
b1110 >
b1101 ?
#60
0:
#61
b1101 %
b1100 &
b1110 +
b1110 0
b1101 1
b1110 7
1:
b1110 ?
#62
0:
#63
b1110 %
b1101 &
b1110 ,
b1111 0
b1110 1
b1111 8
1:
b1111 >
#64
0:
#65
b1111 %
b1110 &
b1111 -
b0000 0
b1111 1
b1111 9
1:
b1111 ?
#66
0:
#67
b0000 %
b1111 &
b1111 .
b0001 0
b0000 1
b1111 2
1:
#68
0:
#69
b0001 %
b0000 &
b1111 '
b0010 0
b0001 1
b0000 3
1:
b0000 >
#70
0:
#71
b0010 %
b0001 &
b0000 (
b0011 0
b0010 1
b0000 4
1:
b0000 ?
#72
0:
#73
b0011 %
b0010 &
b0000 )
b0100 0
b0011 1
b0000 5
1:
#74
0:
#75
b0100 %
b0011 &
b0000 *
b0101 0
b0100 1
b0001 6
1:
b0001 >
#76
0:
#77
b0101 %
b0100 &
b0001 +
b0110 0
b0101 1
b0001 7
1:
b0001 ?
#78
0:
#79
b0110 %
b0101 &
b0001 ,
b0111 0
b0110 1
b0010 8
1:
b0010 >
#80
0:
#81
b0111 %
b0110 &
b0010 -
b1000 0
b0111 1
b0011 9
1:
b0011 >
b0010 ?
#82
0:
#83
b1000 %
b0111 &
b0011 .
b1001 0
b1000 1
b0100 2
1:
b0100 >
b0011 ?
#84
0:
#85
b1001 %
b1000 &
b0100 '
b1010 0
b1001 1
b0101 3
1:
b0101 >
b0100 ?
#86
0:
#87
b1010 %
b1001 &
b0101 (
b1011 0
b1010 1
b0101 4
1:
b0101 ?
#88
0:
#89
b1011 %
b1010 &
b0101 )
b1100 0
b1011 1
b0110 5
1:
b0110 >
#90
0:
#91
b1100 %
b1011 &
b0110 *
b1101 0
b1100 1
b0111 6
1:
b0111 >
b0110 ?
#92
0:
#93
b1101 %
b1100 &
b0111 +
b1110 0
b1101 1
b0111 7
1:
b0111 ?
#94
0:
#95
b1110 %
b1101 &
b0111 ,
b1111 0
b1110 1
b0111 8
1:
#96
0:
#97
b1111 %
b1110 &
b0111 -
b0000 0
b1111 1
b0111 9
1:
#98
0:
#99
b0000 %
b1111 &
b0111 .
b0001 0
b0000 1
b0111 2
1:
#100
0:
#101
b0001 %
b0000 &
b0111 '
b0010 0
b0001 1
b1000 3
1:
b1000 >
#102
0:
#103
b0010 %
b0001 &
b1000 (
b0011 0
b0010 1
b1000 4
1:
b1000 ?
#104
0:
#105
b0011 %
b0010 &
b1000 )
b0100 0
b0011 1
b1000 5
1:
#106
0:
#107
b0100 %
b0011 &
b1000 *
b0101 0
b0100 1
b1000 6
1:
#108
0:
#109
b0101 %
b0100 &
b1000 +
b0110 0
b0101 1
b1001 7
1:
b1001 >
#110
0:
#111
b0110 %
b0101 &
b1001 ,
b0111 0
b0110 1
b1010 8
1:
b1010 >
b1001 ?
#112
0:
#113
b0111 %
b0110 &
b1010 -
b1000 0
b0111 1
b1010 9
1:
b1010 ?
#114
0:
#115
b1000 %
b0111 &
b1010 .
b1001 0
b1000 1
b1010 2
1:
#116
0:
#117
b1001 %
b1000 &
b1010 '
b1010 0
b1001 1
b1011 3
1:
b1011 >
#118
0:
#119
b1010 %
b1001 &
b1011 (
b1011 0
b1010 1
b1011 4
1:
b1011 ?
#120
0:
#121
b1011 %
b1010 &
b1011 )
b1100 0
b1011 1
b1011 5
1:
#122
0:
#123
b1100 %
b1011 &
b1011 *
b1101 0
b1100 1
b1011 6
1:
#124
0:
#125
b1101 %
b1100 &
b1011 +
b1110 0
b1101 1
b1100 7
1:
b1100 >
#126
0:
#127
b1110 %
b1101 &
b1100 ,
b1111 0
b1110 1
b1100 8
1:
b1100 ?
#128
0:
#129
b1111 %
b1110 &
b1100 -
b0000 0
b1111 1
b1101 9
1:
b1101 >
#130
0:
#131
b0000 %
b1111 &
b1101 .
b0001 0
b0000 1
b1110 2
1:
b1110 >
b1101 ?
#132
0:
#133
b0001 %
b0000 &
b1110 '
b0010 0
b0001 1
b1110 3
1:
b1110 ?
#134
0:
#135
b0010 %
b0001 &
b1110 (
b0011 0
b0010 1
b1111 4
1:
b1111 >
#136
0:
#137
b0011 %
b0010 &
b1111 )
b0100 0
b0011 1
b0000 5
1:
b0000 >
b1111 ?
#138
0:
#139
b0100 %
b0011 &
b0000 *
b0101 0
b0100 1
b0001 6
1:
b0001 >
b0000 ?
#140
0:
#141
b0101 %
b0100 &
b0001 +
b0110 0
b0101 1
b0001 7
1:
b0001 ?
#142
0:
#143
b0110 %
b0101 &
b0001 ,
b0111 0
b0110 1
b0001 8
1:
#144
0:
#145
b0111 %
b0110 &
b0001 -
b1000 0
b0111 1
b0001 9
1:
#146
0:
#147
b1000 %
b0111 &
b0001 .
b1001 0
b1000 1
b0010 2
1:
b0010 >
#148
0:
#149
b1001 %
b1000 &
b0010 '
b1010 0
b1001 1
b0011 3
1:
b0011 >
b0010 ?
#150
0:
#151
b1010 %
b1001 &
b0011 (
b1011 0
b1010 1
b0011 4
1:
b0011 ?
#152
0:
#153
b1011 %
b1010 &
b0011 )
b1100 0
b1011 1
b0011 5
1:
#154
0:
#155
b1100 %
b1011 &
b0011 *
b1101 0
b1100 1
b0011 6
1:
#156
0:
#157
b1101 %
b1100 &
b0011 +
b1110 0
b1101 1
b0011 7
1:
#158
0:
#159
b1110 %
b1101 &
b0011 ,
b1111 0
b1110 1
b0011 8
1:
#160
0:
#161
b1111 %
b1110 &
b0011 -
b0000 0
b1111 1
b0011 9
1:
#162
0:
#163
b0000 %
b1111 &
b0011 .
b0001 0
b0000 1
b0011 2
1:
#164
0:
#165
b0001 %
b0000 &
b0011 '
b0010 0
b0001 1
b0100 3
1:
b0100 >
#166
0:
#167
b0010 %
b0001 &
b0100 (
b0011 0
b0010 1
b0101 4
1:
b0101 >
b0100 ?
#168
0:
#169
b0011 %
b0010 &
b0101 )
b0100 0
b0011 1
b0101 5
1:
b0101 ?
#170
0:
#171
b0100 %
b0011 &
b0101 *
b0101 0
b0100 1
b0101 6
1:
#172
0:
#173
b0101 %
b0100 &
b0101 +
b0110 0
b0101 1
b0101 7
1:
#174
0:
#175
b0110 %
b0101 &
b0101 ,
b0111 0
b0110 1
b0101 8
1:
#176
0:
#177
b0111 %
b0110 &
b0101 -
b1000 0
b0111 1
b0110 9
1:
b0110 >
#178
0:
#179
b1000 %
b0111 &
b0110 .
b1001 0
b1000 1
b0111 2
1:
b0111 >
b0110 ?
#180
0:
#181
b1001 %
b1000 &
b0111 '
b1010 0
b1001 1
b1000 3
1:
b1000 >
b0111 ?
#182
0:
#183
b1010 %
b1001 &
b1000 (
b1011 0
b1010 1
b1001 4
1:
b1001 >
b1000 ?
#184
0:
#185
b1011 %
b1010 &
b1001 )
b1100 0
b1011 1
b1010 5
1:
b1010 >
b1001 ?
#186
0:
#187
b1100 %
b1011 &
b1010 *
b1101 0
b1100 1
b1010 6
1:
b1010 ?
#188
0:
#189
b1101 %
b1100 &
b1010 +
b1110 0
b1101 1
b1010 7
1:
#190
0:
#191
b1110 %
b1101 &
b1010 ,
b1111 0
b1110 1
b1010 8
1:
#192
0:
#193
b1111 %
b1110 &
b1010 -
b0000 0
b1111 1
b1011 9
1:
b1011 >
#194
0:
#195
b0000 %
b1111 &
b1011 .
b0001 0
b0000 1
b1100 2
1:
b1100 >
b1011 ?
#196
0:
#197
b0001 %
b0000 &
b1100 '
b0010 0
b0001 1
b1100 3
1:
b1100 ?
#198
0:
#199
b0010 %
b0001 &
b1100 (
b0011 0
b0010 1
b1100 4
1:
#200
0:
#201
b0011 %
b0010 &
b1100 )
b0100 0
b0011 1
b1100 5
1:
#202
0:
#203
b0100 %
b0011 &
b1100 *
b0101 0
b0100 1
b1101 6
1:
b1101 >
#204
0:
#205
b0101 %
b0100 &
b1101 +
b0110 0
b0101 1
b1110 7
1:
b1110 >
b1101 ?
#206
0:
#207
b0110 %
b0101 &
b1110 ,
b0111 0
b0110 1
b1110 8
1:
b1110 ?
#208
0:
#209
b0111 %
b0110 &
b1110 -
b1000 0
b0111 1
b1110 9
1:
#210
0:
#211
b1000 %
b0111 &
b1110 .
b1001 0
b1000 1
b1110 2
1:
#212
0:
#213
b1001 %
b1000 &
b1110 '
b1010 0
b1001 1
b1110 3
1:
#214
0:
#215
b1010 %
b1001 &
b1110 (
b1011 0
b1010 1
b1111 4
1:
b1111 >
#216
0:
#217
b1011 %
b1010 &
b1111 )
b1100 0
b1011 1
b0000 5
1:
b0000 >
b1111 ?
#218
0:
#219
b1100 %
b1011 &
b0000 *
b1101 0
b1100 1
b0000 6
1:
b0000 ?
#220
0:
#221
b1101 %
b1100 &
b0000 +
b1110 0
b1101 1
b0001 7
1:
b0001 >
#222
0:
#223
b1110 %
b1101 &
b0001 ,
b1111 0
b1110 1
b0010 8
1:
b0010 >
b0001 ?
#224
0:
#225
b1111 %
b1110 &
b0010 -
b0000 0
b1111 1
b0011 9
1:
b0011 >
b0010 ?
#226
0:
#227
b0000 %
b1111 &
b0011 .
b0001 0
b0000 1
b0100 2
1:
b0100 >
b0011 ?
#228
0:
#229
b0001 %
b0000 &
b0100 '
b0010 0
b0001 1
b0101 3
1:
b0101 >
b0100 ?
#230
0:
#231
b0010 %
b0001 &
b0101 (
b0011 0
b0010 1
b0110 4
1:
b0110 >
b0101 ?
#232
0:
#233
b0011 %
b0010 &
b0110 )
b0100 0
b0011 1
b0110 5
1:
b0110 ?
#234
0:
#235
b0100 %
b0011 &
b0110 *
b0101 0
b0100 1
b0110 6
1:
#236
0:
#237
b0101 %
b0100 &
b0110 +
b0110 0
b0101 1
b0110 7
1:
#238
0:
#239
b0110 %
b0101 &
b0110 ,
b0111 0
b0110 1
b0111 8
1:
b0111 >
#240
0:
#241
b0111 %
b0110 &
b0111 -
b1000 0
b0111 1
b0111 9
1:
b0111 ?
#242
0:
#243
b1000 %
b0111 &
b0111 .
b1001 0
b1000 1
b0111 2
1:
#244
0:
#245
b1001 %
b1000 &
b0111 '
b1010 0
b1001 1
b1000 3
1:
b1000 >
#246
0:
#247
b1010 %
b1001 &
b1000 (
b1011 0
b1010 1
b1001 4
1:
b1001 >
b1000 ?
#248
0:
#249
b1011 %
b1010 &
b1001 )
b1100 0
b1011 1
b1010 5
1:
b1010 >
b1001 ?
#250
0:
#251
b1100 %
b1011 &
b1010 *
b1101 0
b1100 1
b1010 6
1:
b1010 ?
#252
0:
#253
b1101 %
b1100 &
b1010 +
b1110 0
b1101 1
b1010 7
1:
#254
0:
#255
b1110 %
b1101 &
b1010 ,
b1111 0
b1110 1
b1011 8
1:
b1011 >
#256
0:
#257
b1111 %
b1110 &
b1011 -
b0000 0
b1111 1
b1011 9
1:
b1011 ?
#258
0:
#259
b0000 %
b1111 &
b1011 .
b0001 0
b0000 1
b1100 2
1:
b1100 >
#260
0:
#261
b0001 %
b0000 &
b1100 '
b0010 0
b0001 1
b1101 3
1:
b1101 >
b1100 ?
#262
0:
#263
b0010 %
b0001 &
b1101 (
b0011 0
b0010 1
b1101 4
1:
b1101 ?
#264
0:
#265
b0011 %
b0010 &
b1101 )
b0100 0
b0011 1
b1110 5
1:
b1110 >
#266
0:
#267
b0100 %
b0011 &
b1110 *
b0101 0
b0100 1
b1111 6
1:
b1111 >
b1110 ?
#268
0:
#269
b0101 %
b0100 &
b1111 +
b0110 0
b0101 1
b0000 7
1:
b0000 >
b1111 ?
#270
0:
#271
b0110 %
b0101 &
b0000 ,
b0111 0
b0110 1
b0000 8
1:
b0000 ?
#272
0:
#273
b0111 %
b0110 &
b0000 -
b1000 0
b0111 1
b0000 9
1:
#274
0:
#275
b1000 %
b0111 &
b0000 .
b1001 0
b1000 1
b0000 2
1:
#276
0:
#277
b1001 %
b1000 &
b0000 '
b1010 0
b1001 1
b0001 3
1:
b0001 >
#278
0:
#279
b1010 %
b1001 &
b0001 (
b1011 0
b1010 1
b0010 4
1:
b0010 >
b0001 ?
#280
0:
#281
b1011 %
b1010 &
b0010 )
b1100 0
b1011 1
b0011 5
1:
b0011 >
b0010 ?
#282
0:
#283
b1100 %
b1011 &
b0011 *
b1101 0
b1100 1
b0100 6
1:
b0100 >
b0011 ?
#284
0:
#285
b1101 %
b1100 &
b0100 +
b1110 0
b1101 1
b0101 7
1:
b0101 >
b0100 ?
#286
0:
#287
b1110 %
b1101 &
b0101 ,
b1111 0
b1110 1
b0101 8
1:
b0101 ?
#288
0:
#289
b1111 %
b1110 &
b0101 -
b0000 0
b1111 1
b0110 9
1:
b0110 >
#290
0:
#291
b0000 %
b1111 &
b0110 .
b0001 0
b0000 1
b0110 2
1:
b0110 ?
#292
0:
#293
b0001 %
b0000 &
b0110 '
b0010 0
b0001 1
b0110 3
1:
#294
0:
#295
b0010 %
b0001 &
b0110 (
b0011 0
b0010 1
b0110 4
1:
#296
0:
#297
b0011 %
b0010 &
b0110 )
b0100 0
b0011 1
b0111 5
1:
b0111 >
#298
0:
#299
b0100 %
b0011 &
b0111 *
b0101 0
b0100 1
b1000 6
1:
b1000 >
b0111 ?
#300
0:
#301
b0101 %
b0100 &
b1000 +
b0110 0
b0101 1
b1001 7
1:
b1001 >
b1000 ?
#302
0:
#303
b0110 %
b0101 &
b1001 ,
b0111 0
b0110 1
b1001 8
1:
b1001 ?
#304
0:
#305
b0111 %
b0110 &
b1001 -
b1000 0
b0111 1
b1010 9
1:
b1010 >
#306
0:
#307
b1000 %
b0111 &
b1010 .
b1001 0
b1000 1
b1010 2
1:
b1010 ?
#308
0:
#309
b1001 %
b1000 &
b1010 '
b1010 0
b1001 1
b1011 3
1:
b1011 >
#310
0:
#311
b1010 %
b1001 &
b1011 (
b1011 0
b1010 1
b1100 4
1:
b1100 >
b1011 ?
#312
0:
#313
b1011 %
b1010 &
b1100 )
b1100 0
b1011 1
b1100 5
1:
b1100 ?
#314
0:
#315
b1100 %
b1011 &
b1100 *
b1101 0
b1100 1
b1101 6
1:
b1101 >
#316
0:
#317
b1101 %
b1100 &
b1101 +
b1110 0
b1101 1
b1101 7
1:
b1101 ?
#318
0:
#319
b1110 %
b1101 &
b1101 ,
b1111 0
b1110 1
b1110 8
1:
b1110 >
#320
0:
#321
b1111 %
b1110 &
b1110 -
b0000 0
b1111 1
b1110 9
1:
b1110 ?
#322
0:
#323
b0000 %
b1111 &
b1110 .
b0001 0
b0000 1
b1110 2
1:
#324
0:
#325
b0001 %
b0000 &
b1110 '
b0010 0
b0001 1
b1110 3
1:
#326
0:
#327
b0010 %
b0001 &
b1110 (
b0011 0
b0010 1
b1110 4
1:
#328
0:
#329
b0011 %
b0010 &
b1110 )
b0100 0
b0011 1
b1111 5
1:
b1111 >
#330
0:
#331
b0100 %
b0011 &
b1111 *
b0101 0
b0100 1
b1111 6
1:
b1111 ?
#332
0:
#333
b0101 %
b0100 &
b1111 +
b0110 0
b0101 1
b1111 7
1:
#334
0:
#335
b0110 %
b0101 &
b1111 ,
b0111 0
b0110 1
b1111 8
1:
#336
0:
#337
b0111 %
b0110 &
b1111 -
b1000 0
b0111 1
b1111 9
1:
#338
0:
#339
b1000 %
b0111 &
b1111 .
b1001 0
b1000 1
b0000 2
1:
b0000 >
#340
0:
#341
b1001 %
b1000 &
b0000 '
b1010 0
b1001 1
b0001 3
1:
b0001 >
b0000 ?
#342
0:
#343
b1010 %
b1001 &
b0001 (
b1011 0
b1010 1
b0001 4
1:
b0001 ?
#344
0:
#345
b1011 %
b1010 &
b0001 )
b1100 0
b1011 1
b0001 5
1:
#346
0:
#347
b1100 %
b1011 &
b0001 *
b1101 0
b1100 1
b0001 6
1:
#348
0:
#349
b1101 %
b1100 &
b0001 +
b1110 0
b1101 1
b0001 7
1:
#350
0:
#351
b1110 %
b1101 &
b0001 ,
b1111 0
b1110 1
b0010 8
1:
b0010 >
#352
0:
#353
b1111 %
b1110 &
b0010 -
b0000 0
b1111 1
b0011 9
1:
b0011 >
b0010 ?
#354
0:
#355
b0000 %
b1111 &
b0011 .
b0001 0
b0000 1
b0011 2
1:
b0011 ?
#356
0:
#357
b0001 %
b0000 &
b0011 '
b0010 0
b0001 1
b0011 3
1:
#358
0:
#359
b0010 %
b0001 &
b0011 (
b0011 0
b0010 1
b0100 4
1:
b0100 >
#360
0:
#361
b0011 %
b0010 &
b0100 )
b0100 0
b0011 1
b0101 5
1:
b0101 >
b0100 ?
#362
0:
#363
b0100 %
b0011 &
b0101 *
b0101 0
b0100 1
b0101 6
1:
b0101 ?
#364
0:
#365
b0101 %
b0100 &
b0101 +
b0110 0
b0101 1
b0101 7
1:
#366
0:
#367
b0110 %
b0101 &
b0101 ,
b0111 0
b0110 1
b0101 8
1:
#368
0:
#369
b0111 %
b0110 &
b0101 -
b1000 0
b0111 1
b0101 9
1:
#370
0:
#371
b1000 %
b0111 &
b0101 .
b1001 0
b1000 1
b0110 2
1:
b0110 >
#372
0:
#373
b1001 %
b1000 &
b0110 '
b1010 0
b1001 1
b0110 3
1:
b0110 ?
#374
0:
#375
b1010 %
b1001 &
b0110 (
b1011 0
b1010 1
b0110 4
1:
#376
0:
#377
b1011 %
b1010 &
b0110 )
b1100 0
b1011 1
b0111 5
1:
b0111 >
#378
0:
#379
b1100 %
b1011 &
b0111 *
b1101 0
b1100 1
b0111 6
1:
b0111 ?
#380
0:
#381
b1101 %
b1100 &
b0111 +
b1110 0
b1101 1
b0111 7
1:
#382
0:
#383
b1110 %
b1101 &
b0111 ,
b1111 0
b1110 1
b1000 8
1:
b1000 >
#384
0:
#385
b1111 %
b1110 &
b1000 -
b0000 0
b1111 1
b1000 9
1:
b1000 ?
#386
0:
#387
b0000 %
b1111 &
b1000 .
b0001 0
b0000 1
b1000 2
1:
#388
0:
#389
b0001 %
b0000 &
b1000 '
b0010 0
b0001 1
b1000 3
1:
#390
0:
#391
b0010 %
b0001 &
b1000 (
b0011 0
b0010 1
b1000 4
1:
#392
0:
#393
b0011 %
b0010 &
b1000 )
b0100 0
b0011 1
b1000 5
1:
#394
0:
#395
b0100 %
b0011 &
b1000 *
b0101 0
b0100 1
b1001 6
1:
b1001 >
#396
0:
#397
b0101 %
b0100 &
b1001 +
b0110 0
b0101 1
b1010 7
1:
b1010 >
b1001 ?
#398
0:
#399
b0110 %
b0101 &
b1010 ,
b0111 0
b0110 1
b1011 8
1:
b1011 >
b1010 ?
#400
0:
#401
b0111 %
b0110 &
b1011 -
b1000 0
b0111 1
b1011 9
1:
b1011 ?
#402
0:
#403
b1000 %
b0111 &
b1011 .
b1001 0
b1000 1
b1011 2
1:
#404
0:
#405
b1001 %
b1000 &
b1011 '
b1010 0
b1001 1
b1011 3
1:
#406
0:
#407
b1010 %
b1001 &
b1011 (
b1011 0
b1010 1
b1100 4
1:
b1100 >
#408
0:
#409
b1011 %
b1010 &
b1100 )
b1100 0
b1011 1
b1101 5
1:
b1101 >
b1100 ?
#410
0:
#411
b1100 %
b1011 &
b1101 *
b1101 0
b1100 1
b1110 6
1:
b1110 >
b1101 ?
#412
0:
#413
b1101 %
b1100 &
b1110 +
b1110 0
b1101 1
b1110 7
1:
b1110 ?
#414
0:
#415
b1110 %
b1101 &
b1110 ,
b1111 0
b1110 1
b1110 8
1:
#416
0:
#417
b1111 %
b1110 &
b1110 -
b0000 0
b1111 1
b1110 9
1:
#418
0:
#419
b0000 %
b1111 &
b1110 .
b0001 0
b0000 1
b1111 2
1:
b1111 >
#420
0:
#421
b0001 %
b0000 &
b1111 '
b0010 0
b0001 1
b1111 3
1:
b1111 ?
#422
0:
#423
b0010 %
b0001 &
b1111 (
b0011 0
b0010 1
b0000 4
1:
b0000 >
#424
0:
#425
b0011 %
b0010 &
b0000 )
b0100 0
b0011 1
b0000 5
1:
b0000 ?
#426
0:
#427
b0100 %
b0011 &
b0000 *
b0101 0
b0100 1
b0001 6
1:
b0001 >
#428
0:
#429
b0101 %
b0100 &
b0001 +
b0110 0
b0101 1
b0001 7
1:
b0001 ?
#430
0:
#431
b0110 %
b0101 &
b0001 ,
b0111 0
b0110 1
b0010 8
1:
b0010 >
#432
0:
#433
b0111 %
b0110 &
b0010 -
b1000 0
b0111 1
b0011 9
1:
b0011 >
b0010 ?
#434
0:
#435
b1000 %
b0111 &
b0011 .
b1001 0
b1000 1
b0100 2
1:
b0100 >
b0011 ?
#436
0:
#437
b1001 %
b1000 &
b0100 '
b1010 0
b1001 1
b0100 3
1:
b0100 ?
#438
0:
#439
b1010 %
b1001 &
b0100 (
b1011 0
b1010 1
b0100 4
1:
#440
0:
#441
b1011 %
b1010 &
b0100 )
b1100 0
b1011 1
b0100 5
1:
#442
0:
#443
b1100 %
b1011 &
b0100 *
b1101 0
b1100 1
b0100 6
1:
#444
0:
#445
b1101 %
b1100 &
b0100 +
b1110 0
b1101 1
b0100 7
1:
#446
0:
#447
b1110 %
b1101 &
b0100 ,
b1111 0
b1110 1
b0101 8
1:
b0101 >
#448
0:
#449
b1111 %
b1110 &
b0101 -
b0000 0
b1111 1
b0101 9
1:
b0101 ?
#450
0:
#451
b0000 %
b1111 &
b0101 .
b0001 0
b0000 1
b0110 2
1:
b0110 >
#452
0:
#453
b0001 %
b0000 &
b0110 '
b0010 0
b0001 1
b0110 3
1:
b0110 ?
#454
0:
#455
b0010 %
b0001 &
b0110 (
b0011 0
b0010 1
b0111 4
1:
b0111 >
#456
0:
#457
b0011 %
b0010 &
b0111 )
b0100 0
b0011 1
b1000 5
1:
b1000 >
b0111 ?
#458
0:
#459
b0100 %
b0011 &
b1000 *
b0101 0
b0100 1
b1000 6
1:
b1000 ?
#460
0:
#461
b0101 %
b0100 &
b1000 +
b0110 0
b0101 1
b1001 7
1:
b1001 >
#462
0:
#463
b0110 %
b0101 &
b1001 ,
b0111 0
b0110 1
b1001 8
1:
b1001 ?
#464
0:
#465
b0111 %
b0110 &
b1001 -
b1000 0
b0111 1
b1001 9
1:
#466
0:
#467
b1000 %
b0111 &
b1001 .
b1001 0
b1000 1
b1010 2
1:
b1010 >
#468
0:
#469
b1001 %
b1000 &
b1010 '
b1010 0
b1001 1
b1011 3
1:
b1011 >
b1010 ?
#470
0:
#471
b1010 %
b1001 &
b1011 (
b1011 0
b1010 1
b1100 4
1:
b1100 >
b1011 ?
#472
0:
#473
b1011 %
b1010 &
b1100 )
b1100 0
b1011 1
b1101 5
1:
b1101 >
b1100 ?
#474
0:
#475
b1100 %
b1011 &
b1101 *
b1101 0
b1100 1
b1101 6
1:
b1101 ?
#476
0:
#477
b1101 %
b1100 &
b1101 +
b1110 0
b1101 1
b1110 7
1:
b1110 >
#478
0:
#479
b1110 %
b1101 &
b1110 ,
b1111 0
b1110 1
b1111 8
1:
b1111 >
b1110 ?
#480
0:
#481
b1111 %
b1110 &
b1111 -
b0000 0
b1111 1
b1111 9
1:
b1111 ?
#482
0:
#483
b0000 %
b1111 &
b1111 .
b0001 0
b0000 1
b0000 2
1:
b0000 >
#484
0:
#485
b0001 %
b0000 &
b0000 '
b0010 0
b0001 1
b0001 3
1:
b0001 >
b0000 ?
#486
0:
#487
b0010 %
b0001 &
b0001 (
b0011 0
b0010 1
b0010 4
1:
b0010 >
b0001 ?
#488
0:
#489
b0011 %
b0010 &
b0010 )
b0100 0
b0011 1
b0011 5
1:
b0011 >
b0010 ?
#490
0:
#491
b0100 %
b0011 &
b0011 *
b0101 0
b0100 1
b0011 6
1:
b0011 ?
#492
0:
#493
b0101 %
b0100 &
b0011 +
b0110 0
b0101 1
b0011 7
1:
#494
0:
#495
b0110 %
b0101 &
b0011 ,
b0111 0
b0110 1
b0011 8
1:
#496
0:
#497
b0111 %
b0110 &
b0011 -
b1000 0
b0111 1
b0100 9
1:
b0100 >
#498
0:
#499
b1000 %
b0111 &
b0100 .
b1001 0
b1000 1
b0101 2
1:
b0101 >
b0100 ?
#500
0:
#501
b1001 %
b1000 &
b0101 '
b1010 0
b1001 1
b0101 3
1:
b0101 ?
#502
0:
#503
b1010 %
b1001 &
b0101 (
b1011 0
b1010 1
b0101 4
1:
#504
0:
#505
b1011 %
b1010 &
b0101 )
b1100 0
b1011 1
b0101 5
1:
#506
0:
#507
b1100 %
b1011 &
b0101 *
b1101 0
b1100 1
b0101 6
1:
#508
0:
#509
b1101 %
b1100 &
b0101 +
b1110 0
b1101 1
b0110 7
1:
b0110 >
#510
0:
#511
b1110 %
b1101 &
b0110 ,
b1111 0
b1110 1
b0110 8
1:
b0110 ?
#512
0:
